[
    {
        "id": "6a1f7758-4be7-42b7-bcfe-caf77c457771",
        "name": "Bulbasaur",
        "number": "1",
        "type": [
            { "name": "Planta", "strongAgainst": "Agua", "weakAgainst": "Fuego" }
        ],
        "img": "https://assets.pokemon.com/assets/cms2/img/pokedex/full/001.png"
    },
    {
        "id": "6a1f7758-4be7-42b7-bcfe-caf77c45777j",
        "name": "Charmander",
        "number": "4",
        "type": [
            { "name": "Fuego", "strongAgainst": "Planta", "weakAgainst": "Agua" }
        ],
        "img": "https://assets.pokemon.com/assets/cms2/img/pokedex/full/004.png"
    },
    {
        "id": "6a1f7758-4be7-42b7-bcfe-caf77c45777c",
        "name": "Squirtle",
        "number": "7",
        "type": [
            { "name": "Agua", "strongAgainst": "Fuego", "weakAgainst": "Planta" }
        ],
        "img": "https://assets.pokemon.com/assets/cms2/img/pokedex/full/007.png"
    }
]
